BST430 Lecture 5b
…
```r
ontime_drop = ontime %>% group_by(carrier, dest) %>% 
  summarize(ontime_pct = mean(ontime, na.rm  = TRUE)*100)
```

```
## `summarise()` has grouped output by 'carrier'. You can override using the `.groups` argument.
```

```r
ontime_drop
```

```
## # A tibble: 314 × 3
## # Groups:   carrier [16]
##    carrier dest  ontime_pct
##    <chr>   <chr>      <dbl>
##  1 9E      ATL         50  
##  2 9E      AUS         50  
##  3 9E      AVL         80  
##  4 9E      BGR        NaN  
##  5 9E      BNA         61.1
##  6 9E      BOS         66.0
##  7 9E      BTV        100  
##  8 9E      BUF         64.5
##  9 9E      BWI         62.7
## 10 9E      CAE         66.7
## # … with 304 more rows
```
…
```
## `summarise()` has grouped output by 'carrier'. You can override using the `.groups` argument.
```

```r
ontime_keep
```

```
## # A tibble: 1,680 × 3
## # Groups:   carrier [16]
##    carrier dest  ontime_pct
##    <fct>   <fct>      <dbl>
##  1 9E      ABQ          NaN
##  2 9E      ACK          NaN
##  3 9E      ALB          NaN
##  4 9E      ANC          NaN
##  5 9E      ATL           50
##  6 9E      AUS           50
##  7 9E      AVL           80
##  8 9E      BDL          NaN
##  9 9E      BGR          NaN
## 10 9E      BHM          NaN
## # … with 1,670 more rows
```
…
## `group_by() filter()`

We can combine group_by with filter, mutate or arrange to evaluate these verbes on each group.

```r
ontime_1500 = ontime %>% group_by(dest) %>% filter(n() > 1500) %>%
  mutate(n_flights_dest = n(), .after = 1)

ontime_1500 %>% arrange(n_flights_dest)
```

```
## # A tibble: 314,599 × 21
## # Groups:   dest [53]
##     year n_flights_dest month   day dep_time sched_dep_time dep_delay arr_time
##    <int>          <int> <int> <int>    <int>          <int>     <dbl>    <int>
##  1  2013           1525     1     1     1304           1227        37     1518
##  2  2013           1525     1     1     1732           1630        62     2028
##  3  2013           1525     1     2      834            823        11     1039
##  4  2013           1525     1     2     1228           1229        -1     1430
##  5  2013           1525     1     2     1909           1621       168     2116
##  6  2013           1525     1     3      856            820        36     1107
##  7  2013           1525     1     3     1311           1230        41     1511
##  8  2013           1525     1     3     1637           1616        21     1829
##  9  2013           1525     1     4      818            822        -4     1008
## 10  2013           1525     1     4     1302           1230        32     1442
## # … with 314,589 more rows, and 13 more variables: sched_arr_time <int>,
## #   arr_delay <dbl>, carrier <fct>, flight <int>, tailnum <chr>, origin <chr>,
## #   dest <fct>, air_time <dbl>, distance <dbl>, hour <dbl>, minute <dbl>,
## #   time_hour <dttm>, ontime <lgl>
```
…
