BST430 Lecture 17
…
???

Dropping `from`, `sent_email` quells the warnings about predicted probabilities being 0/1. Actually some of these variables might have predictive power, but we would need a more sophisticated approach than logistic regression to use them

---

## Predict outcome on the testing dataset

```r
predict(email_fit, test_data)
```

```
## # A tibble: 785 x 1
##    .pred_class
##    <fct>      
##  1 0          
##  2 0          
##  3 0          
##  4 0          
##  5 0          
##  6 0          
##  7 0          
##  8 0          
##  9 0          
## 10 0          
## # … with 775 more rows
```

---

## Predict probabilities on the testing dataset

```r
email_pred = predict(email_fit, test_data, type = "prob") %>%
  bind_cols(test_data %>% select(spam, time))

email_pred
```

```
## # A tibble: 785 x 4
##    .pred_0 .pred_1 spam  time               
##      <dbl>   <dbl> <fct> <dttm>             
##  1   0.993 0.00709 0     2012-01-01 12:55:06
##  2   0.998 0.00181 0     2012-01-01 14:38:32
##  3   0.981 0.0191  0     2012-01-02 00:42:16
##  4   0.999 0.00124 0     2012-01-02 10:12:51
##  5   0.988 0.0121  0     2012-01-02 11:45:36
##  6   0.830 0.170   0     2012-01-02 16:55:03
##  7   0.959 0.0410  0     2012-01-02 20:07:17
##  8   0.861 0.139   0     2012-01-03 00:41:35
##  9   0.938 0.0617  0     2012-01-03 11:02:35
## 10   0.902 0.0983  0     2012-01-03 06:14:51
## # … with 775 more rows
```

---

## A closer look at predictions

```r
email_pred %>%
  arrange(desc(.pred_1)) %>%
  print(n = 10)
```

```
## # A tibble: 785 x 4
##    .pred_0 .pred_1 spam  time               
##      <dbl>   <dbl> <fct> <dttm>             
##  1  0.0972   0.903 1     2012-02-13 07:15:00
##  2  0.167    0.833 0     2012-01-27 15:05:06
*##  3  0.175    0.825 1     2012-03-01 00:40:27
##  4  0.267    0.733 1     2012-03-17 06:13:27
##  5  0.317    0.683 1     2012-03-21 08:33:12
##  6  0.374    0.626 1     2012-02-08 03:00:05
*##  7  0.386    0.614 0     2012-01-30 09:20:29
##  8  0.403    0.597 1     2012-01-07 11:11:49
##  9  0.462    0.538 1     2012-03-06 06:46:20
## 10  0.463    0.537 0     2012-02-17 17:54:16
## # … with 775 more rows
```
…
